%YAML 1.1
%TAG !u! tag:unity3d.com,2011:
--- !u!78 &1
TagManager:
  serializedVersion: 2
  tags:
  - Food
  - Enemy
  - ShowOnPause
  - ShowOnFinish
  - Tutorial
  - FirstTimePlaying
  - NotFirstTimePlaying
  layers:
  - Default
  - TransparentFX
  - Ignore Raycast
  - 
  - Water
  - UI
  - 
  - 
  - Logo
  - 
  - 
  - 
  - 
  - 
  - 
  - 
  - 
  - 
  - 
  - 
  - 
  - 
  - 
  - 
  - 
  - 
  - 
  - 
  - 
  - 
  - 
  - 
  m_SortingLayers:
  - name: Default
    uniqueID: 0
    locked: 0
  - name: Background
    uniqueID: 186341321
    locked: 0
  - name: Foreground
    uniqueID: 2546812521
    locked: 0
  - name: Midground
    uniqueID: 4190683055
    locked: 0
